             ______      ____        __  __      ______     
 /'\_/`\    /\__  _\    /\  _`\     /\ \/\ \    /\  _  \    
/\      \   \/_/\ \/    \ \,\L\_\   \ \ \_\ \   \ \ \L\ \   
\ \ \__\ \     \ \ \     \/_\__ \    \ \  _  \   \ \  __ \  
 \ \ \_/\ \     \_\ \__    /\ \L\ \   \ \ \ \ \   \ \ \/\ \ 
  \ \_\\ \_\    /\_____\   \ `\____\   \ \_\ \_\   \ \_\ \_\
   \/_/ \/_/    \/_____/    \/_____/    \/_/\/_/    \/_/\/_/